\relax 
\providecommand\hyper@newdestlabel[2]{}
\providecommand\HyperFirstAtBeginDocument{\AtBeginDocument}
\HyperFirstAtBeginDocument{\ifx\hyper@anchor\@undefined
\global\let\oldcontentsline\contentsline
\gdef\contentsline#1#2#3#4{\oldcontentsline{#1}{#2}{#3}}
\global\let\oldnewlabel\newlabel
\gdef\newlabel#1#2{\newlabelxx{#1}#2}
\gdef\newlabelxx#1#2#3#4#5#6{\oldnewlabel{#1}{{#2}{#3}}}
\AtEndDocument{\ifx\hyper@anchor\@undefined
\let\contentsline\oldcontentsline
\let\newlabel\oldnewlabel
\fi}
\fi}
\global\let\hyper@last\relax 
\gdef\HyperFirstAtBeginDocument#1{#1}
\providecommand\HyField@AuxAddToFields[1]{}
\providecommand\HyField@AuxAddToCoFields[2]{}
\citation{afanasiev1998some,dubovik1990toroid,radescu2002exact}
\citation{kaelberer2010toroidal}
\citation{papasimakis2016electromagnetic}
\citation{dubovik1990toroid}
\citation{afanasiev1998some}
\newlabel{FirstPage}{{}{1}{}{section*.1}{}}
\@writefile{toc}{\contentsline {title}{Electromagnetic sources beyond common multipoles}{1}{section*.2}}
\@writefile{toc}{\contentsline {abstract}{Abstract}{1}{section*.1}}
\@writefile{toc}{\contentsline {section}{\numberline {I}Introduction}{1}{section*.3}}
\@writefile{lof}{\contentsline {figure}{\numberline {1}{\ignorespaces A model of the static 1st order mean-square radius of a point charge: a point charge placed in the center of an oppositely charged sphere bearing the same total charge. Only half of the sphere is shown explicitly.\relax }}{1}{figure.caption.4}}
\providecommand*\caption@xref[2]{\@setref\relax\@undefined{#1}}
\newlabel{fig charge first radius}{{1}{1}{A model of the static 1st order mean-square radius of a point charge: a point charge placed in the center of an oppositely charged sphere bearing the same total charge. Only half of the sphere is shown explicitly.\relax }{figure.caption.4}{}}
\citation{dubovik1990toroid,radescu2002exact}
\citation{radescu2002exact}
\citation{dubovik1990toroid}
\newlabel{charge MSR}{{2}{2}{}{equation.1.2}{}}
\@writefile{toc}{\contentsline {section}{\numberline {II}Mathematical representation of mean-square radii}{2}{section*.5}}
\newlabel{charge multipoles msr}{{3}{2}{}{equation.2.3}{}}
\newlabel{charge density MSR}{{5}{2}{}{equation.2.5}{}}
\@writefile{toc}{\contentsline {section}{\numberline {III}Visualization of first-order mean-square radii}{3}{section*.6}}
\newlabel{fig electric dipole}{{2a}{3}{\relax }{figure.caption.7}{}}
\newlabel{sub@fig electric dipole}{{a}{3}{\relax }{figure.caption.7}{}}
\newlabel{fig three charges dipole}{{2b}{3}{\relax }{figure.caption.7}{}}
\newlabel{sub@fig three charges dipole}{{b}{3}{\relax }{figure.caption.7}{}}
\@writefile{lof}{\contentsline {figure}{\numberline {2}{\ignorespaces (a) Electric dipole as a pair of opposite point charges and (b) its alternative representation involving three charges.\relax }}{3}{figure.caption.7}}
\newlabel{fig electric dipoles}{{2}{3}{(a) Electric dipole as a pair of opposite point charges and (b) its alternative representation involving three charges.\relax }{figure.caption.7}{}}
\@writefile{lof}{\contentsline {figure}{\numberline {3}{\ignorespaces A model of the static 1st order mean-square radius of an electric dipole.\relax }}{3}{figure.caption.8}}
\newlabel{fig electric dipole first radius}{{3}{3}{A model of the static 1st order mean-square radius of an electric dipole.\relax }{figure.caption.8}{}}
\newlabel{fig magnetic dipole}{{4a}{4}{\relax }{figure.caption.9}{}}
\newlabel{sub@fig magnetic dipole}{{a}{4}{\relax }{figure.caption.9}{}}
\newlabel{fig magnetic msr}{{4b}{4}{\relax }{figure.caption.9}{}}
\newlabel{sub@fig magnetic msr}{{b}{4}{\relax }{figure.caption.9}{}}
\newlabel{fig supertoroid}{{4c}{4}{\relax }{figure.caption.9}{}}
\newlabel{sub@fig supertoroid}{{c}{4}{\relax }{figure.caption.9}{}}
\@writefile{lof}{\contentsline {figure}{\numberline {4}{\ignorespaces Visualizing 1st order mean-square radius of a magnetic dipole. (a) Current distribution representing a magnetic dipole (current circulates in a loop). (b) A cross-section of the current distribution representing the 1st order MSR of the magnetic dipole. Currents are confined to red loop and the surface of (imaginary) blue torus, and circulate in the opposite directions. Dashed blue circle shows the centerline of the torus. Dashed yellow line is the axis of the torus. (c) Current-carrying supertoroidal wire coil of the 3rd order. In the limit of tight winding, when helicity of the coil vanishes, it represents a source of the 1st order MSR of a magnetic dipole.\relax }}{4}{figure.caption.9}}
\newlabel{fig magnetic}{{4}{4}{Visualizing 1st order mean-square radius of a magnetic dipole. (a) Current distribution representing a magnetic dipole (current circulates in a loop). (b) A cross-section of the current distribution representing the 1st order MSR of the magnetic dipole. Currents are confined to red loop and the surface of (imaginary) blue torus, and circulate in the opposite directions. Dashed blue circle shows the centerline of the torus. Dashed yellow line is the axis of the torus. (c) Current-carrying supertoroidal wire coil of the 3rd order. In the limit of tight winding, when helicity of the coil vanishes, it represents a source of the 1st order MSR of a magnetic dipole.\relax }{figure.caption.9}{}}
\newlabel{magnetic deformation}{{12}{4}{}{equation.3.12}{}}
\newlabel{fig toric dipole}{{5a}{5}{\relax }{figure.caption.10}{}}
\newlabel{sub@fig toric dipole}{{a}{5}{\relax }{figure.caption.10}{}}
\newlabel{fig toric msr}{{5b}{5}{\relax }{figure.caption.10}{}}
\newlabel{sub@fig toric msr}{{b}{5}{\relax }{figure.caption.10}{}}
\newlabel{fig supersupertoroid}{{5c}{5}{\relax }{figure.caption.10}{}}
\newlabel{sub@fig supersupertoroid}{{c}{5}{\relax }{figure.caption.10}{}}
\@writefile{lof}{\contentsline {figure}{\numberline {5}{\ignorespaces Visualizing 1st order mean-square radius of a toroidal dipole. (a) Current distribution representing a toroidal dipole (currents circulate on a surface of an imaginary torus along its meridians). (b) A cross-section of the current distribution representing the 1st order MSR of the toroidal dipole. Currents are confined to the surfaces of nested (imaginary) red and blue tori, and circulate along their meridians in the opposite directions. Dashed blue and red circles show the centerlines of blue and red tori, respectively. Dashed yellow line is the axis of both tori. (c) Current-carrying supertoroidal wire coil of the 4th order. In the limit of tight winding, when helicity of the coil vanishes, it represents a source of the 1st order MSR of a toroidal dipole.\relax }}{5}{figure.caption.10}}
\newlabel{fig toric}{{5}{5}{Visualizing 1st order mean-square radius of a toroidal dipole. (a) Current distribution representing a toroidal dipole (currents circulate on a surface of an imaginary torus along its meridians). (b) A cross-section of the current distribution representing the 1st order MSR of the toroidal dipole. Currents are confined to the surfaces of nested (imaginary) red and blue tori, and circulate along their meridians in the opposite directions. Dashed blue and red circles show the centerlines of blue and red tori, respectively. Dashed yellow line is the axis of both tori. (c) Current-carrying supertoroidal wire coil of the 4th order. In the limit of tight winding, when helicity of the coil vanishes, it represents a source of the 1st order MSR of a toroidal dipole.\relax }{figure.caption.10}{}}
\@writefile{toc}{\contentsline {section}{\numberline {IV}Further examples of mean-square radii}{5}{section*.11}}
\newlabel{cond 1}{{14}{5}{}{equation.4.14}{}}
\newlabel{cond 2}{{15}{5}{}{equation.4.15}{}}
\newlabel{fig electric quadrupole from charges}{{6a}{5}{\relax }{figure.caption.12}{}}
\newlabel{sub@fig electric quadrupole from charges}{{a}{5}{\relax }{figure.caption.12}{}}
\newlabel{fig electric quadrupole msr}{{6b}{5}{\relax }{figure.caption.12}{}}
\newlabel{sub@fig electric quadrupole msr}{{b}{5}{\relax }{figure.caption.12}{}}
\@writefile{lof}{\contentsline {figure}{\numberline {6}{\ignorespaces (a) Electric quadrupole as a set of four point charges and (b) its 1st order MSR given by a set of four 1st MSRs of the point charges.\relax }}{5}{figure.caption.12}}
\newlabel{fig electric quadrupole}{{6}{5}{(a) Electric quadrupole as a set of four point charges and (b) its 1st order MSR given by a set of four 1st MSRs of the point charges.\relax }{figure.caption.12}{}}
\citation{afanasiev1995electromagnetic,afanasiev2001simplest}
\citation{afanasiev1995electromagnetic,afanasiev2001simplest}
\citation{radescu2002exact}
\@writefile{lof}{\contentsline {figure}{\numberline {7}{\ignorespaces A model of the static 2nd order mean-square radius of a point charge.\relax }}{6}{figure.caption.13}}
\newlabel{fig electric charge second msr}{{7}{6}{A model of the static 2nd order mean-square radius of a point charge.\relax }{figure.caption.13}{}}
\@writefile{toc}{\contentsline {section}{\numberline {V}Physical realizations of mean-square radii}{6}{section*.14}}
\newlabel{supercurrents}{{16}{6}{}{equation.5.16}{}}
\@writefile{lof}{\contentsline {figure}{\numberline {8}{\ignorespaces Current-carrying supertoroidal wire coil of the 2nd order (toroidal solenoid). In the limit of tight winding, when helicity of the coil vanishes, it represents a source of a toroidal dipole.\relax }}{6}{figure.caption.15}}
\newlabel{fig wire toroid}{{8}{6}{Current-carrying supertoroidal wire coil of the 2nd order (toroidal solenoid). In the limit of tight winding, when helicity of the coil vanishes, it represents a source of a toroidal dipole.\relax }{figure.caption.15}{}}
\newlabel{sec radition}{{VI}{6}{}{section*.17}{}}
\@writefile{toc}{\contentsline {section}{\numberline {VI}Electromagnetic properties of the mean-square radii }{6}{section*.17}}
\citation{afanasiev1995electromagnetic}
\citation{papasimakis2016electromagnetic}
\citation{devaney1973radiating}
\@writefile{lof}{\contentsline {figure}{\numberline {9}{\ignorespaces Current-carrying supertoroidal wire coil of the 5th order. In the limit of tight winding, when helicity of the coil vanishes, it represents a source of the 2nd order MSR of a magnetic dipole.\relax }}{7}{figure.caption.16}}
\newlabel{fig superpupertoroid}{{9}{7}{Current-carrying supertoroidal wire coil of the 5th order. In the limit of tight winding, when helicity of the coil vanishes, it represents a source of the 2nd order MSR of a magnetic dipole.\relax }{figure.caption.16}{}}
\newlabel{intensity full}{{18}{7}{}{equation.6.18}{}}
\@writefile{lot}{\contentsline {table}{\numberline {I}{\ignorespaces Multipole terms (up to order 6) that make up \textit  {the charge-current distribution} in an electromagnetic source, organized by their origin. Notation $X_m^{(n)}$ means $n$-th MSR of $m$-th multipole type $X$. For example $M_2$ is the magnetic dipole while $Q_8^{(1)}$ is 1st MSR of the electric octupole.\relax }}{7}{table.caption.18}}
\newlabel{tab multipoles}{{I}{7}{Multipole terms (up to order 6) that make up \textit {the charge-current distribution} in an electromagnetic source, organized by their origin. Notation $X_m^{(n)}$ means $n$-th MSR of $m$-th multipole type $X$. For example $M_2$ is the magnetic dipole while $Q_8^{(1)}$ is 1st MSR of the electric octupole.\relax }{table.caption.18}{}}
\@writefile{lot}{\contentsline {table}{\numberline {II}{\ignorespaces Multipole terms (up to order 6) that \textit  {contribute to radiation} from an electromagnetic source, organized by the radiation type. Notation $X_m^{(n)}$ means $n$-th MSR of $m$-th multipole type $X$. For example $T_2$ is the toroidal dipole while $M_4^{(1)}$ is 1st MSR of the magnetic quadrupole.\relax }}{7}{table.caption.19}}
\newlabel{tab radiation}{{II}{7}{Multipole terms (up to order 6) that \textit {contribute to radiation} from an electromagnetic source, organized by the radiation type. Notation $X_m^{(n)}$ means $n$-th MSR of $m$-th multipole type $X$. For example $T_2$ is the toroidal dipole while $M_4^{(1)}$ is 1st MSR of the magnetic quadrupole.\relax }{table.caption.19}{}}
\citation{luk2017hybrid}
\citation{basharin2015dielectric,miroshnichenko2015nonradiating,liu2015toroidal,kim2015subwavelength,liu2015invisible,grinblat2016enhanced,xiang2016generic,tasolamprou2016toroidal,evlyukhin2016optical,nemkov2017nonradiating}
\@writefile{toc}{\contentsline {section}{\numberline {VII}Non-radiating sources}{8}{section*.20}}
\@writefile{toc}{\contentsline {section}{\numberline {VIII}Conclusion}{8}{section*.21}}
\@writefile{toc}{\appendix }
\@writefile{lof}{\contentsline {figure}{\numberline {10}{\ignorespaces Parametrization of a torus.\relax }}{9}{figure.caption.23}}
\newlabel{fig magnetic torus}{{10}{9}{Parametrization of a torus.\relax }{figure.caption.23}{}}
\@writefile{toc}{\contentsline {section}{\numberline {A}1st Order mean-square radius of a magnetic dipole}{9}{section*.22}}
\newlabel{app magnetic msr}{{A}{9}{}{section*.22}{}}
\newlabel{torus magnetic current}{{A1}{9}{}{equation.A.1}{}}
\newlabel{j expansion}{{A3}{9}{}{equation.A.3}{}}
\newlabel{toric expansion}{{A4}{9}{}{equation.A.4}{}}
\newlabel{magnetic moments match}{{A6}{9}{}{equation.A.6}{}}
\newlabel{radii match}{{A7}{9}{}{equation.A.7}{}}
\@writefile{toc}{\contentsline {section}{\numberline {B}1st Order mean-square radius of a toroidal dipole}{9}{section*.24}}
\newlabel{app toroidal msr}{{B}{9}{}{section*.24}{}}
\newlabel{torus toric current}{{B1}{9}{}{equation.B.1}{}}
\bibdata{EM_sources_beyond_common_multipolesNotes,bibfile}
\bibcite{afanasiev1998some}{{1}{1998}{{Afanasiev\ and\ Dubovik}}{{}}}
\bibcite{dubovik1990toroid}{{2}{1990}{{Dubovik\ and\ Tugushev}}{{}}}
\bibcite{radescu2002exact}{{3}{2002}{{Radescu\ and\ Vaman}}{{}}}
\bibcite{kaelberer2010toroidal}{{4}{2010}{{Kaelberer\ \emph  {et~al.}}}{{Kaelberer, Fedotov, Papasimakis, Tsai,\ and\ Zheludev}}}
\bibcite{papasimakis2016electromagnetic}{{5}{2016}{{Papasimakis\ \emph  {et~al.}}}{{Papasimakis, Fedotov, Savinov, Raybould,\ and\ Zheludev}}}
\bibcite{afanasiev1995electromagnetic}{{6}{1995}{{Afanasiev\ and\ Stepanovsky}}{{}}}
\bibcite{afanasiev2001simplest}{{7}{2001}{{Afanasiev}}{{}}}
\bibcite{devaney1973radiating}{{8}{1973}{{Devaney\ and\ Wolf}}{{}}}
\bibcite{luk2017hybrid}{{9}{2017}{{Luk'yanchuk\ \emph  {et~al.}}}{{Luk'yanchuk, Paniagua-Dom{\'\i }nguez, Kuznetsov, Miroshnichenko,\ and\ Kivshar}}}
\bibcite{basharin2015dielectric}{{10}{2015}{{Basharin\ \emph  {et~al.}}}{{Basharin, Kafesaki, Economou, Soukoulis, Fedotov, Savinov,\ and\ Zheludev}}}
\bibcite{miroshnichenko2015nonradiating}{{11}{2015}{{Miroshnichenko\ \emph  {et~al.}}}{{Miroshnichenko, Evlyukhin, Yu, Bakker, Chipouline, Kuznetsov, Luk\'{}yanchuk, Chichkov,\ and\ Kivshar}}}
\bibcite{liu2015toroidal}{{12}{2015{}}{{Liu\ \emph  {et~al.}}}{{Liu, Zhang,\ and\ Miroshnichenko}}}
\bibcite{kim2015subwavelength}{{13}{2015}{{Kim\ \emph  {et~al.}}}{{Kim, Oh, Kim, Kim, Park, Hess,\ and\ Kee}}}
\bibcite{liu2015invisible}{{14}{2015{}}{{Liu\ \emph  {et~al.}}}{{Liu, Zhang, Lei, Hu,\ and\ Miroshnichenko}}}
\bibcite{grinblat2016enhanced}{{15}{2016}{{Grinblat\ \emph  {et~al.}}}{{Grinblat, Li, Nielsen, Oulton,\ and\ Maier}}}
\bibcite{xiang2016generic}{{16}{2016}{{Xiang\ \emph  {et~al.}}}{{Xiang, Ge, Liu, Jiang, Zhang, Chan,\ and\ Han}}}
\bibcite{tasolamprou2016toroidal}{{17}{2016}{{Tasolamprou\ \emph  {et~al.}}}{{Tasolamprou, Tsilipakos, Kafesaki, Soukoulis,\ and\ Economou}}}
\bibcite{evlyukhin2016optical}{{18}{2016}{{Evlyukhin\ \emph  {et~al.}}}{{Evlyukhin, Fischer, Reinhardt,\ and\ Chichkov}}}
\bibcite{nemkov2017nonradiating}{{19}{2017}{{Nemkov\ \emph  {et~al.}}}{{Nemkov, Basharin,\ and\ Fedotov}}}
\bibstyle{apsrev4-1}
\newlabel{toroidal moments match}{{B3}{10}{}{equation.B.3}{}}
\newlabel{toroidal geometry match}{{B4}{10}{}{equation.B.4}{}}
\@writefile{toc}{\contentsline {section}{\numberline {}References}{10}{section*.25}}
\newlabel{LastBibItem}{{19}{10}{}{section*.25}{}}
\newlabel{LastPage}{{}{10}{}{}{}}
