\relax 
\bibdata{tabletestNotes}
\bibstyle{apsrev4-1}
\citation{REVTEX41Control}
\citation{apsrev41Control}
\@writefile{lof}{\contentsline {figure}{\numberline {1}{\ignorespaces ...\relax }}{1}{}}
\newlabel{fig:1}{{1}{1}{}{}{}}
\@writefile{lot}{\contentsline {table}{\numberline {I}{\ignorespaces Multipole terms (up to order 6) that \textit  {contribute to radiation} from an electromagnetic source, organized by the radiation type. Notation $X_m^{(n)}$ means $n$-th MSR of $m$-th multipole type $X$. For example $T_2$ is the toroidal dipole while $M_4^{(1)}$ is 1st MSR of the magnetic quadrupole.\relax }}{2}{}}
\providecommand*\caption@xref[2]{\@setref\relax\@undefined{#1}}
\newlabel{tab radiation}{{I}{2}{}{}{}}
\@writefile{lot}{\contentsline {table}{\numberline {II}{\ignorespaces Text of table caption.\relax }}{2}{}}
\newlabel{tab:example}{{II}{2}{}{}{}}
\@writefile{lot}{\contentsline {table}{\numberline {III}{\ignorespaces Text of table caption.\relax }}{2}{}}
\newlabel{tab:example}{{III}{2}{}{}{}}
\newlabel{LastPage}{{}{2}{}{}{}}
